TrackerLength,FascistPolicies,LiberalPolicies,HitlerElected,HitlerExecuted,RoundCountSum
1,568631,276206,126051,29112,8503987
2,576306,300319,104366,19009,13435374
3,590989,290055,106154,12802,17831725
4,594999,285323,108894,10784,22093428
5,598287,281527,110120,10066,26041271
6,599233,279702,111271,9794,29991919
7,599028,279605,111377,9990,33742052
8,598448,281940,110388,9224,38409713
9,598794,281515,110611,9080,42193400
10,599770,280719,110663,8848,46058890
11,599838,280285,111061,8816,49838656
12,599684,280350,110907,9059,53669124
