TrackerLength,FascistPolicies,LiberalPolicies,HitlerElected,HitlerExecuted,RoundCountSum
1,635570,116471,170583,77376,7931123
2,507120,104729,271010,117141,12352251
3,432162,96020,332368,139450,14947604
4,389151,89784,368870,152195,16521137
5,362236,86573,391340,159851,17477068
6,344846,84228,405763,165163,18096469
7,335226,82080,414663,168031,18447411
8,328913,81461,420055,169571,18700361
9,325298,80944,423205,170553,18846393
10,321602,80462,425914,172022,18929532
11,321363,80054,426947,171636,19012814
12,319248,80311,427479,172962,19044578
