<?xml version="1.0" encoding="utf-8" standalone="no"?>
<!DOCTYPE svg PUBLIC "-//W3C//DTD SVG 1.1//EN"
  "http://www.w3.org/Graphics/SVG/1.1/DTD/svg11.dtd">
<!-- Created with matplotlib (https://matplotlib.org/) -->
<svg height="500.415156pt" version="1.1" viewBox="0 0 661.931719 500.415156" width="661.931719pt" xmlns="http://www.w3.org/2000/svg" xmlns:xlink="http://www.w3.org/1999/xlink">
 <defs>
  <style type="text/css">
*{stroke-linecap:butt;stroke-linejoin:round;}
  </style>
 </defs>
 <g id="figure_1">
  <g id="patch_1">
   <path d="M 0 500.415156 
L 661.931719 500.415156 
L 661.931719 0 
L 0 0 
z
" style="fill:#ffffff;"/>
  </g>
  <g id="axes_1">
   <g id="patch_2">
    <path d="M 120.724531 348.478125 
L 512.116531 348.478125 
L 512.116531 22.318125 
L 120.724531 22.318125 
z
" style="fill:#eaeaf2;"/>
   </g>
   <g id="matplotlib.axis_1">
    <g id="xtick_1">
     <g id="text_1">
      <!-- cfr_1Ms -->
      <defs>
       <path d="M 48.78125 52.59375 
L 48.78125 44.1875 
Q 44.96875 46.296875 41.140625 47.34375 
Q 37.3125 48.390625 33.40625 48.390625 
Q 24.65625 48.390625 19.8125 42.84375 
Q 14.984375 37.3125 14.984375 27.296875 
Q 14.984375 17.28125 19.8125 11.734375 
Q 24.65625 6.203125 33.40625 6.203125 
Q 37.3125 6.203125 41.140625 7.25 
Q 44.96875 8.296875 48.78125 10.40625 
L 48.78125 2.09375 
Q 45.015625 0.34375 40.984375 -0.53125 
Q 36.96875 -1.421875 32.421875 -1.421875 
Q 20.0625 -1.421875 12.78125 6.34375 
Q 5.515625 14.109375 5.515625 27.296875 
Q 5.515625 40.671875 12.859375 48.328125 
Q 20.21875 56 33.015625 56 
Q 37.15625 56 41.109375 55.140625 
Q 45.0625 54.296875 48.78125 52.59375 
z
" id="DejaVuSans-99"/>
       <path d="M 37.109375 75.984375 
L 37.109375 68.5 
L 28.515625 68.5 
Q 23.6875 68.5 21.796875 66.546875 
Q 19.921875 64.59375 19.921875 59.515625 
L 19.921875 54.6875 
L 34.71875 54.6875 
L 34.71875 47.703125 
L 19.921875 47.703125 
L 19.921875 0 
L 10.890625 0 
L 10.890625 47.703125 
L 2.296875 47.703125 
L 2.296875 54.6875 
L 10.890625 54.6875 
L 10.890625 58.5 
Q 10.890625 67.625 15.140625 71.796875 
Q 19.390625 75.984375 28.609375 75.984375 
z
" id="DejaVuSans-102"/>
       <path d="M 41.109375 46.296875 
Q 39.59375 47.171875 37.8125 47.578125 
Q 36.03125 48 33.890625 48 
Q 26.265625 48 22.1875 43.046875 
Q 18.109375 38.09375 18.109375 28.8125 
L 18.109375 0 
L 9.078125 0 
L 9.078125 54.6875 
L 18.109375 54.6875 
L 18.109375 46.1875 
Q 20.953125 51.171875 25.484375 53.578125 
Q 30.03125 56 36.53125 56 
Q 37.453125 56 38.578125 55.875 
Q 39.703125 55.765625 41.0625 55.515625 
z
" id="DejaVuSans-114"/>
       <path d="M 50.984375 -16.609375 
L 50.984375 -23.578125 
L -0.984375 -23.578125 
L -0.984375 -16.609375 
z
" id="DejaVuSans-95"/>
       <path d="M 12.40625 8.296875 
L 28.515625 8.296875 
L 28.515625 63.921875 
L 10.984375 60.40625 
L 10.984375 69.390625 
L 28.421875 72.90625 
L 38.28125 72.90625 
L 38.28125 8.296875 
L 54.390625 8.296875 
L 54.390625 0 
L 12.40625 0 
z
" id="DejaVuSans-49"/>
       <path d="M 9.8125 72.90625 
L 24.515625 72.90625 
L 43.109375 23.296875 
L 61.8125 72.90625 
L 76.515625 72.90625 
L 76.515625 0 
L 66.890625 0 
L 66.890625 64.015625 
L 48.09375 14.015625 
L 38.1875 14.015625 
L 19.390625 64.015625 
L 19.390625 0 
L 9.8125 0 
z
" id="DejaVuSans-77"/>
       <path d="M 44.28125 53.078125 
L 44.28125 44.578125 
Q 40.484375 46.53125 36.375 47.5 
Q 32.28125 48.484375 27.875 48.484375 
Q 21.1875 48.484375 17.84375 46.4375 
Q 14.5 44.390625 14.5 40.28125 
Q 14.5 37.15625 16.890625 35.375 
Q 19.28125 33.59375 26.515625 31.984375 
L 29.59375 31.296875 
Q 39.15625 29.25 43.1875 25.515625 
Q 47.21875 21.78125 47.21875 15.09375 
Q 47.21875 7.46875 41.1875 3.015625 
Q 35.15625 -1.421875 24.609375 -1.421875 
Q 20.21875 -1.421875 15.453125 -0.5625 
Q 10.6875 0.296875 5.421875 2 
L 5.421875 11.28125 
Q 10.40625 8.6875 15.234375 7.390625 
Q 20.0625 6.109375 24.8125 6.109375 
Q 31.15625 6.109375 34.5625 8.28125 
Q 37.984375 10.453125 37.984375 14.40625 
Q 37.984375 18.0625 35.515625 20.015625 
Q 33.0625 21.96875 24.703125 23.78125 
L 21.578125 24.515625 
Q 13.234375 26.265625 9.515625 29.90625 
Q 5.8125 33.546875 5.8125 39.890625 
Q 5.8125 47.609375 11.28125 51.796875 
Q 16.75 56 26.8125 56 
Q 31.78125 56 36.171875 55.265625 
Q 40.578125 54.546875 44.28125 53.078125 
z
" id="DejaVuSans-115"/>
      </defs>
      <g style="fill:#262626;" transform="translate(156.222875 400.140781)rotate(-90)scale(0.11 -0.11)">
       <use xlink:href="#DejaVuSans-99"/>
       <use x="54.980469" xlink:href="#DejaVuSans-102"/>
       <use x="90.185547" xlink:href="#DejaVuSans-114"/>
       <use x="131.298828" xlink:href="#DejaVuSans-95"/>
       <use x="181.298828" xlink:href="#DejaVuSans-49"/>
       <use x="244.921875" xlink:href="#DejaVuSans-77"/>
       <use x="331.201172" xlink:href="#DejaVuSans-115"/>
      </g>
     </g>
    </g>
    <g id="xtick_2">
     <g id="text_2">
      <!-- cfr_9Ms -->
      <defs>
       <path d="M 10.984375 1.515625 
L 10.984375 10.5 
Q 14.703125 8.734375 18.5 7.8125 
Q 22.3125 6.890625 25.984375 6.890625 
Q 35.75 6.890625 40.890625 13.453125 
Q 46.046875 20.015625 46.78125 33.40625 
Q 43.953125 29.203125 39.59375 26.953125 
Q 35.25 24.703125 29.984375 24.703125 
Q 19.046875 24.703125 12.671875 31.3125 
Q 6.296875 37.9375 6.296875 49.421875 
Q 6.296875 60.640625 12.9375 67.421875 
Q 19.578125 74.21875 30.609375 74.21875 
Q 43.265625 74.21875 49.921875 64.515625 
Q 56.59375 54.828125 56.59375 36.375 
Q 56.59375 19.140625 48.40625 8.859375 
Q 40.234375 -1.421875 26.421875 -1.421875 
Q 22.703125 -1.421875 18.890625 -0.6875 
Q 15.09375 0.046875 10.984375 1.515625 
z
M 30.609375 32.421875 
Q 37.25 32.421875 41.125 36.953125 
Q 45.015625 41.5 45.015625 49.421875 
Q 45.015625 57.28125 41.125 61.84375 
Q 37.25 66.40625 30.609375 66.40625 
Q 23.96875 66.40625 20.09375 61.84375 
Q 16.21875 57.28125 16.21875 49.421875 
Q 16.21875 41.5 20.09375 36.953125 
Q 23.96875 32.421875 30.609375 32.421875 
z
" id="DejaVuSans-57"/>
      </defs>
      <g style="fill:#262626;" transform="translate(221.454875 400.140781)rotate(-90)scale(0.11 -0.11)">
       <use xlink:href="#DejaVuSans-99"/>
       <use x="54.980469" xlink:href="#DejaVuSans-102"/>
       <use x="90.185547" xlink:href="#DejaVuSans-114"/>
       <use x="131.298828" xlink:href="#DejaVuSans-95"/>
       <use x="181.298828" xlink:href="#DejaVuSans-57"/>
       <use x="244.921875" xlink:href="#DejaVuSans-77"/>
       <use x="331.201172" xlink:href="#DejaVuSans-115"/>
      </g>
     </g>
    </g>
    <g id="xtick_3">
     <g id="text_3">
      <!-- countersimple_fascist -->
      <defs>
       <path d="M 30.609375 48.390625 
Q 23.390625 48.390625 19.1875 42.75 
Q 14.984375 37.109375 14.984375 27.296875 
Q 14.984375 17.484375 19.15625 11.84375 
Q 23.34375 6.203125 30.609375 6.203125 
Q 37.796875 6.203125 41.984375 11.859375 
Q 46.1875 17.53125 46.1875 27.296875 
Q 46.1875 37.015625 41.984375 42.703125 
Q 37.796875 48.390625 30.609375 48.390625 
z
M 30.609375 56 
Q 42.328125 56 49.015625 48.375 
Q 55.71875 40.765625 55.71875 27.296875 
Q 55.71875 13.875 49.015625 6.21875 
Q 42.328125 -1.421875 30.609375 -1.421875 
Q 18.84375 -1.421875 12.171875 6.21875 
Q 5.515625 13.875 5.515625 27.296875 
Q 5.515625 40.765625 12.171875 48.375 
Q 18.84375 56 30.609375 56 
z
" id="DejaVuSans-111"/>
       <path d="M 8.5 21.578125 
L 8.5 54.6875 
L 17.484375 54.6875 
L 17.484375 21.921875 
Q 17.484375 14.15625 20.5 10.265625 
Q 23.53125 6.390625 29.59375 6.390625 
Q 36.859375 6.390625 41.078125 11.03125 
Q 45.3125 15.671875 45.3125 23.6875 
L 45.3125 54.6875 
L 54.296875 54.6875 
L 54.296875 0 
L 45.3125 0 
L 45.3125 8.40625 
Q 42.046875 3.421875 37.71875 1 
Q 33.40625 -1.421875 27.6875 -1.421875 
Q 18.265625 -1.421875 13.375 4.4375 
Q 8.5 10.296875 8.5 21.578125 
z
M 31.109375 56 
z
" id="DejaVuSans-117"/>
       <path d="M 54.890625 33.015625 
L 54.890625 0 
L 45.90625 0 
L 45.90625 32.71875 
Q 45.90625 40.484375 42.875 44.328125 
Q 39.84375 48.1875 33.796875 48.1875 
Q 26.515625 48.1875 22.3125 43.546875 
Q 18.109375 38.921875 18.109375 30.90625 
L 18.109375 0 
L 9.078125 0 
L 9.078125 54.6875 
L 18.109375 54.6875 
L 18.109375 46.1875 
Q 21.34375 51.125 25.703125 53.5625 
Q 30.078125 56 35.796875 56 
Q 45.21875 56 50.046875 50.171875 
Q 54.890625 44.34375 54.890625 33.015625 
z
" id="DejaVuSans-110"/>
       <path d="M 18.3125 70.21875 
L 18.3125 54.6875 
L 36.8125 54.6875 
L 36.8125 47.703125 
L 18.3125 47.703125 
L 18.3125 18.015625 
Q 18.3125 11.328125 20.140625 9.421875 
Q 21.96875 7.515625 27.59375 7.515625 
L 36.8125 7.515625 
L 36.8125 0 
L 27.59375 0 
Q 17.1875 0 13.234375 3.875 
Q 9.28125 7.765625 9.28125 18.015625 
L 9.28125 47.703125 
L 2.6875 47.703125 
L 2.6875 54.6875 
L 9.28125 54.6875 
L 9.28125 70.21875 
z
" id="DejaVuSans-116"/>
       <path d="M 56.203125 29.59375 
L 56.203125 25.203125 
L 14.890625 25.203125 
Q 15.484375 15.921875 20.484375 11.0625 
Q 25.484375 6.203125 34.421875 6.203125 
Q 39.59375 6.203125 44.453125 7.46875 
Q 49.3125 8.734375 54.109375 11.28125 
L 54.109375 2.78125 
Q 49.265625 0.734375 44.1875 -0.34375 
Q 39.109375 -1.421875 33.890625 -1.421875 
Q 20.796875 -1.421875 13.15625 6.1875 
Q 5.515625 13.8125 5.515625 26.8125 
Q 5.515625 40.234375 12.765625 48.109375 
Q 20.015625 56 32.328125 56 
Q 43.359375 56 49.78125 48.890625 
Q 56.203125 41.796875 56.203125 29.59375 
z
M 47.21875 32.234375 
Q 47.125 39.59375 43.09375 43.984375 
Q 39.0625 48.390625 32.421875 48.390625 
Q 24.90625 48.390625 20.390625 44.140625 
Q 15.875 39.890625 15.1875 32.171875 
z
" id="DejaVuSans-101"/>
       <path d="M 9.421875 54.6875 
L 18.40625 54.6875 
L 18.40625 0 
L 9.421875 0 
z
M 9.421875 75.984375 
L 18.40625 75.984375 
L 18.40625 64.59375 
L 9.421875 64.59375 
z
" id="DejaVuSans-105"/>
       <path d="M 52 44.1875 
Q 55.375 50.25 60.0625 53.125 
Q 64.75 56 71.09375 56 
Q 79.640625 56 84.28125 50.015625 
Q 88.921875 44.046875 88.921875 33.015625 
L 88.921875 0 
L 79.890625 0 
L 79.890625 32.71875 
Q 79.890625 40.578125 77.09375 44.375 
Q 74.3125 48.1875 68.609375 48.1875 
Q 61.625 48.1875 57.5625 43.546875 
Q 53.515625 38.921875 53.515625 30.90625 
L 53.515625 0 
L 44.484375 0 
L 44.484375 32.71875 
Q 44.484375 40.625 41.703125 44.40625 
Q 38.921875 48.1875 33.109375 48.1875 
Q 26.21875 48.1875 22.15625 43.53125 
Q 18.109375 38.875 18.109375 30.90625 
L 18.109375 0 
L 9.078125 0 
L 9.078125 54.6875 
L 18.109375 54.6875 
L 18.109375 46.1875 
Q 21.1875 51.21875 25.484375 53.609375 
Q 29.78125 56 35.6875 56 
Q 41.65625 56 45.828125 52.96875 
Q 50 49.953125 52 44.1875 
z
" id="DejaVuSans-109"/>
       <path d="M 18.109375 8.203125 
L 18.109375 -20.796875 
L 9.078125 -20.796875 
L 9.078125 54.6875 
L 18.109375 54.6875 
L 18.109375 46.390625 
Q 20.953125 51.265625 25.265625 53.625 
Q 29.59375 56 35.59375 56 
Q 45.5625 56 51.78125 48.09375 
Q 58.015625 40.1875 58.015625 27.296875 
Q 58.015625 14.40625 51.78125 6.484375 
Q 45.5625 -1.421875 35.59375 -1.421875 
Q 29.59375 -1.421875 25.265625 0.953125 
Q 20.953125 3.328125 18.109375 8.203125 
z
M 48.6875 27.296875 
Q 48.6875 37.203125 44.609375 42.84375 
Q 40.53125 48.484375 33.40625 48.484375 
Q 26.265625 48.484375 22.1875 42.84375 
Q 18.109375 37.203125 18.109375 27.296875 
Q 18.109375 17.390625 22.1875 11.75 
Q 26.265625 6.109375 33.40625 6.109375 
Q 40.53125 6.109375 44.609375 11.75 
Q 48.6875 17.390625 48.6875 27.296875 
z
" id="DejaVuSans-112"/>
       <path d="M 9.421875 75.984375 
L 18.40625 75.984375 
L 18.40625 0 
L 9.421875 0 
z
" id="DejaVuSans-108"/>
       <path d="M 34.28125 27.484375 
Q 23.390625 27.484375 19.1875 25 
Q 14.984375 22.515625 14.984375 16.5 
Q 14.984375 11.71875 18.140625 8.90625 
Q 21.296875 6.109375 26.703125 6.109375 
Q 34.1875 6.109375 38.703125 11.40625 
Q 43.21875 16.703125 43.21875 25.484375 
L 43.21875 27.484375 
z
M 52.203125 31.203125 
L 52.203125 0 
L 43.21875 0 
L 43.21875 8.296875 
Q 40.140625 3.328125 35.546875 0.953125 
Q 30.953125 -1.421875 24.3125 -1.421875 
Q 15.921875 -1.421875 10.953125 3.296875 
Q 6 8.015625 6 15.921875 
Q 6 25.140625 12.171875 29.828125 
Q 18.359375 34.515625 30.609375 34.515625 
L 43.21875 34.515625 
L 43.21875 35.40625 
Q 43.21875 41.609375 39.140625 45 
Q 35.0625 48.390625 27.6875 48.390625 
Q 23 48.390625 18.546875 47.265625 
Q 14.109375 46.140625 10.015625 43.890625 
L 10.015625 52.203125 
Q 14.9375 54.109375 19.578125 55.046875 
Q 24.21875 56 28.609375 56 
Q 40.484375 56 46.34375 49.84375 
Q 52.203125 43.703125 52.203125 31.203125 
z
" id="DejaVuSans-97"/>
      </defs>
      <g style="fill:#262626;" transform="translate(286.686875 477.601406)rotate(-90)scale(0.11 -0.11)">
       <use xlink:href="#DejaVuSans-99"/>
       <use x="54.980469" xlink:href="#DejaVuSans-111"/>
       <use x="116.162109" xlink:href="#DejaVuSans-117"/>
       <use x="179.541016" xlink:href="#DejaVuSans-110"/>
       <use x="242.919922" xlink:href="#DejaVuSans-116"/>
       <use x="282.128906" xlink:href="#DejaVuSans-101"/>
       <use x="343.652344" xlink:href="#DejaVuSans-114"/>
       <use x="384.765625" xlink:href="#DejaVuSans-115"/>
       <use x="436.865234" xlink:href="#DejaVuSans-105"/>
       <use x="464.648438" xlink:href="#DejaVuSans-109"/>
       <use x="562.060547" xlink:href="#DejaVuSans-112"/>
       <use x="625.537109" xlink:href="#DejaVuSans-108"/>
       <use x="653.320312" xlink:href="#DejaVuSans-101"/>
       <use x="714.84375" xlink:href="#DejaVuSans-95"/>
       <use x="764.84375" xlink:href="#DejaVuSans-102"/>
       <use x="800.048828" xlink:href="#DejaVuSans-97"/>
       <use x="861.328125" xlink:href="#DejaVuSans-115"/>
       <use x="913.427734" xlink:href="#DejaVuSans-99"/>
       <use x="968.408203" xlink:href="#DejaVuSans-105"/>
       <use x="996.191406" xlink:href="#DejaVuSans-115"/>
       <use x="1048.291016" xlink:href="#DejaVuSans-116"/>
      </g>
     </g>
    </g>
    <g id="xtick_4">
     <g id="text_4">
      <!-- paranoid_fascist -->
      <defs>
       <path d="M 45.40625 46.390625 
L 45.40625 75.984375 
L 54.390625 75.984375 
L 54.390625 0 
L 45.40625 0 
L 45.40625 8.203125 
Q 42.578125 3.328125 38.25 0.953125 
Q 33.9375 -1.421875 27.875 -1.421875 
Q 17.96875 -1.421875 11.734375 6.484375 
Q 5.515625 14.40625 5.515625 27.296875 
Q 5.515625 40.1875 11.734375 48.09375 
Q 17.96875 56 27.875 56 
Q 33.9375 56 38.25 53.625 
Q 42.578125 51.265625 45.40625 46.390625 
z
M 14.796875 27.296875 
Q 14.796875 17.390625 18.875 11.75 
Q 22.953125 6.109375 30.078125 6.109375 
Q 37.203125 6.109375 41.296875 11.75 
Q 45.40625 17.390625 45.40625 27.296875 
Q 45.40625 37.203125 41.296875 42.84375 
Q 37.203125 48.484375 30.078125 48.484375 
Q 22.953125 48.484375 18.875 42.84375 
Q 14.796875 37.203125 14.796875 27.296875 
z
" id="DejaVuSans-100"/>
      </defs>
      <g style="fill:#262626;" transform="translate(351.918875 447.696875)rotate(-90)scale(0.11 -0.11)">
       <use xlink:href="#DejaVuSans-112"/>
       <use x="63.476562" xlink:href="#DejaVuSans-97"/>
       <use x="124.755859" xlink:href="#DejaVuSans-114"/>
       <use x="165.869141" xlink:href="#DejaVuSans-97"/>
       <use x="227.148438" xlink:href="#DejaVuSans-110"/>
       <use x="290.527344" xlink:href="#DejaVuSans-111"/>
       <use x="351.708984" xlink:href="#DejaVuSans-105"/>
       <use x="379.492188" xlink:href="#DejaVuSans-100"/>
       <use x="442.96875" xlink:href="#DejaVuSans-95"/>
       <use x="492.96875" xlink:href="#DejaVuSans-102"/>
       <use x="528.173828" xlink:href="#DejaVuSans-97"/>
       <use x="589.453125" xlink:href="#DejaVuSans-115"/>
       <use x="641.552734" xlink:href="#DejaVuSans-99"/>
       <use x="696.533203" xlink:href="#DejaVuSans-105"/>
       <use x="724.316406" xlink:href="#DejaVuSans-115"/>
       <use x="776.416016" xlink:href="#DejaVuSans-116"/>
      </g>
     </g>
    </g>
    <g id="xtick_5">
     <g id="text_5">
      <!-- random_fascist -->
      <g style="fill:#262626;" transform="translate(417.150875 441.631406)rotate(-90)scale(0.11 -0.11)">
       <use xlink:href="#DejaVuSans-114"/>
       <use x="41.113281" xlink:href="#DejaVuSans-97"/>
       <use x="102.392578" xlink:href="#DejaVuSans-110"/>
       <use x="165.771484" xlink:href="#DejaVuSans-100"/>
       <use x="229.248047" xlink:href="#DejaVuSans-111"/>
       <use x="290.429688" xlink:href="#DejaVuSans-109"/>
       <use x="387.841797" xlink:href="#DejaVuSans-95"/>
       <use x="437.841797" xlink:href="#DejaVuSans-102"/>
       <use x="473.046875" xlink:href="#DejaVuSans-97"/>
       <use x="534.326172" xlink:href="#DejaVuSans-115"/>
       <use x="586.425781" xlink:href="#DejaVuSans-99"/>
       <use x="641.40625" xlink:href="#DejaVuSans-105"/>
       <use x="669.189453" xlink:href="#DejaVuSans-115"/>
       <use x="721.289062" xlink:href="#DejaVuSans-116"/>
      </g>
     </g>
    </g>
    <g id="xtick_6">
     <g id="text_6">
      <!-- simple_fascist -->
      <g style="fill:#262626;" transform="translate(482.382875 435.277187)rotate(-90)scale(0.11 -0.11)">
       <use xlink:href="#DejaVuSans-115"/>
       <use x="52.099609" xlink:href="#DejaVuSans-105"/>
       <use x="79.882812" xlink:href="#DejaVuSans-109"/>
       <use x="177.294922" xlink:href="#DejaVuSans-112"/>
       <use x="240.771484" xlink:href="#DejaVuSans-108"/>
       <use x="268.554688" xlink:href="#DejaVuSans-101"/>
       <use x="330.078125" xlink:href="#DejaVuSans-95"/>
       <use x="380.078125" xlink:href="#DejaVuSans-102"/>
       <use x="415.283203" xlink:href="#DejaVuSans-97"/>
       <use x="476.5625" xlink:href="#DejaVuSans-115"/>
       <use x="528.662109" xlink:href="#DejaVuSans-99"/>
       <use x="583.642578" xlink:href="#DejaVuSans-105"/>
       <use x="611.425781" xlink:href="#DejaVuSans-115"/>
       <use x="663.525391" xlink:href="#DejaVuSans-116"/>
      </g>
     </g>
    </g>
    <g id="text_7">
     <!-- FascistStrategy -->
     <defs>
      <path d="M 9.8125 72.90625 
L 51.703125 72.90625 
L 51.703125 64.59375 
L 19.671875 64.59375 
L 19.671875 43.109375 
L 48.578125 43.109375 
L 48.578125 34.8125 
L 19.671875 34.8125 
L 19.671875 0 
L 9.8125 0 
z
" id="DejaVuSans-70"/>
      <path d="M 53.515625 70.515625 
L 53.515625 60.890625 
Q 47.90625 63.578125 42.921875 64.890625 
Q 37.9375 66.21875 33.296875 66.21875 
Q 25.25 66.21875 20.875 63.09375 
Q 16.5 59.96875 16.5 54.203125 
Q 16.5 49.359375 19.40625 46.890625 
Q 22.3125 44.4375 30.421875 42.921875 
L 36.375 41.703125 
Q 47.40625 39.59375 52.65625 34.296875 
Q 57.90625 29 57.90625 20.125 
Q 57.90625 9.515625 50.796875 4.046875 
Q 43.703125 -1.421875 29.984375 -1.421875 
Q 24.8125 -1.421875 18.96875 -0.25 
Q 13.140625 0.921875 6.890625 3.21875 
L 6.890625 13.375 
Q 12.890625 10.015625 18.65625 8.296875 
Q 24.421875 6.59375 29.984375 6.59375 
Q 38.421875 6.59375 43.015625 9.90625 
Q 47.609375 13.234375 47.609375 19.390625 
Q 47.609375 24.75 44.3125 27.78125 
Q 41.015625 30.8125 33.5 32.328125 
L 27.484375 33.5 
Q 16.453125 35.6875 11.515625 40.375 
Q 6.59375 45.0625 6.59375 53.421875 
Q 6.59375 63.09375 13.40625 68.65625 
Q 20.21875 74.21875 32.171875 74.21875 
Q 37.3125 74.21875 42.625 73.28125 
Q 47.953125 72.359375 53.515625 70.515625 
z
" id="DejaVuSans-83"/>
      <path d="M 45.40625 27.984375 
Q 45.40625 37.75 41.375 43.109375 
Q 37.359375 48.484375 30.078125 48.484375 
Q 22.859375 48.484375 18.828125 43.109375 
Q 14.796875 37.75 14.796875 27.984375 
Q 14.796875 18.265625 18.828125 12.890625 
Q 22.859375 7.515625 30.078125 7.515625 
Q 37.359375 7.515625 41.375 12.890625 
Q 45.40625 18.265625 45.40625 27.984375 
z
M 54.390625 6.78125 
Q 54.390625 -7.171875 48.1875 -13.984375 
Q 42 -20.796875 29.203125 -20.796875 
Q 24.46875 -20.796875 20.265625 -20.09375 
Q 16.0625 -19.390625 12.109375 -17.921875 
L 12.109375 -9.1875 
Q 16.0625 -11.328125 19.921875 -12.34375 
Q 23.78125 -13.375 27.78125 -13.375 
Q 36.625 -13.375 41.015625 -8.765625 
Q 45.40625 -4.15625 45.40625 5.171875 
L 45.40625 9.625 
Q 42.625 4.78125 38.28125 2.390625 
Q 33.9375 0 27.875 0 
Q 17.828125 0 11.671875 7.65625 
Q 5.515625 15.328125 5.515625 27.984375 
Q 5.515625 40.671875 11.671875 48.328125 
Q 17.828125 56 27.875 56 
Q 33.9375 56 38.28125 53.609375 
Q 42.625 51.21875 45.40625 46.390625 
L 45.40625 54.6875 
L 54.390625 54.6875 
z
" id="DejaVuSans-103"/>
      <path d="M 32.171875 -5.078125 
Q 28.375 -14.84375 24.75 -17.8125 
Q 21.140625 -20.796875 15.09375 -20.796875 
L 7.90625 -20.796875 
L 7.90625 -13.28125 
L 13.1875 -13.28125 
Q 16.890625 -13.28125 18.9375 -11.515625 
Q 21 -9.765625 23.484375 -3.21875 
L 25.09375 0.875 
L 2.984375 54.6875 
L 12.5 54.6875 
L 29.59375 11.921875 
L 46.6875 54.6875 
L 56.203125 54.6875 
z
" id="DejaVuSans-121"/>
     </defs>
     <g style="fill:#262626;" transform="translate(270.561781 490.719531)scale(0.12 -0.12)">
      <use xlink:href="#DejaVuSans-70"/>
      <use x="48.394531" xlink:href="#DejaVuSans-97"/>
      <use x="109.673828" xlink:href="#DejaVuSans-115"/>
      <use x="161.773438" xlink:href="#DejaVuSans-99"/>
      <use x="216.753906" xlink:href="#DejaVuSans-105"/>
      <use x="244.537109" xlink:href="#DejaVuSans-115"/>
      <use x="296.636719" xlink:href="#DejaVuSans-116"/>
      <use x="335.845703" xlink:href="#DejaVuSans-83"/>
      <use x="399.322266" xlink:href="#DejaVuSans-116"/>
      <use x="438.53125" xlink:href="#DejaVuSans-114"/>
      <use x="479.644531" xlink:href="#DejaVuSans-97"/>
      <use x="540.923828" xlink:href="#DejaVuSans-116"/>
      <use x="580.132812" xlink:href="#DejaVuSans-101"/>
      <use x="641.65625" xlink:href="#DejaVuSans-103"/>
      <use x="705.132812" xlink:href="#DejaVuSans-121"/>
     </g>
    </g>
   </g>
   <g id="matplotlib.axis_2">
    <g id="ytick_1">
     <g id="text_8">
      <!-- cfr_1Ms -->
      <g style="fill:#262626;" transform="translate(69.061875 59.113266)scale(0.11 -0.11)">
       <use xlink:href="#DejaVuSans-99"/>
       <use x="54.980469" xlink:href="#DejaVuSans-102"/>
       <use x="90.185547" xlink:href="#DejaVuSans-114"/>
       <use x="131.298828" xlink:href="#DejaVuSans-95"/>
       <use x="181.298828" xlink:href="#DejaVuSans-49"/>
       <use x="244.921875" xlink:href="#DejaVuSans-77"/>
       <use x="331.201172" xlink:href="#DejaVuSans-115"/>
      </g>
     </g>
    </g>
    <g id="ytick_2">
     <g id="text_9">
      <!-- cfr_9Ms -->
      <g style="fill:#262626;" transform="translate(69.061875 124.345266)scale(0.11 -0.11)">
       <use xlink:href="#DejaVuSans-99"/>
       <use x="54.980469" xlink:href="#DejaVuSans-102"/>
       <use x="90.185547" xlink:href="#DejaVuSans-114"/>
       <use x="131.298828" xlink:href="#DejaVuSans-95"/>
       <use x="181.298828" xlink:href="#DejaVuSans-57"/>
       <use x="244.921875" xlink:href="#DejaVuSans-77"/>
       <use x="331.201172" xlink:href="#DejaVuSans-115"/>
      </g>
     </g>
    </g>
    <g id="ytick_3">
     <g id="text_10">
      <!-- paranoid_liberal -->
      <defs>
       <path d="M 48.6875 27.296875 
Q 48.6875 37.203125 44.609375 42.84375 
Q 40.53125 48.484375 33.40625 48.484375 
Q 26.265625 48.484375 22.1875 42.84375 
Q 18.109375 37.203125 18.109375 27.296875 
Q 18.109375 17.390625 22.1875 11.75 
Q 26.265625 6.109375 33.40625 6.109375 
Q 40.53125 6.109375 44.609375 11.75 
Q 48.6875 17.390625 48.6875 27.296875 
z
M 18.109375 46.390625 
Q 20.953125 51.265625 25.265625 53.625 
Q 29.59375 56 35.59375 56 
Q 45.5625 56 51.78125 48.09375 
Q 58.015625 40.1875 58.015625 27.296875 
Q 58.015625 14.40625 51.78125 6.484375 
Q 45.5625 -1.421875 35.59375 -1.421875 
Q 29.59375 -1.421875 25.265625 0.953125 
Q 20.953125 3.328125 18.109375 8.203125 
L 18.109375 0 
L 9.078125 0 
L 9.078125 75.984375 
L 18.109375 75.984375 
z
" id="DejaVuSans-98"/>
      </defs>
      <g style="fill:#262626;" transform="translate(22.81375 189.577266)scale(0.11 -0.11)">
       <use xlink:href="#DejaVuSans-112"/>
       <use x="63.476562" xlink:href="#DejaVuSans-97"/>
       <use x="124.755859" xlink:href="#DejaVuSans-114"/>
       <use x="165.869141" xlink:href="#DejaVuSans-97"/>
       <use x="227.148438" xlink:href="#DejaVuSans-110"/>
       <use x="290.527344" xlink:href="#DejaVuSans-111"/>
       <use x="351.708984" xlink:href="#DejaVuSans-105"/>
       <use x="379.492188" xlink:href="#DejaVuSans-100"/>
       <use x="442.96875" xlink:href="#DejaVuSans-95"/>
       <use x="492.96875" xlink:href="#DejaVuSans-108"/>
       <use x="520.751953" xlink:href="#DejaVuSans-105"/>
       <use x="548.535156" xlink:href="#DejaVuSans-98"/>
       <use x="612.011719" xlink:href="#DejaVuSans-101"/>
       <use x="673.535156" xlink:href="#DejaVuSans-114"/>
       <use x="714.648438" xlink:href="#DejaVuSans-97"/>
       <use x="775.927734" xlink:href="#DejaVuSans-108"/>
      </g>
     </g>
    </g>
    <g id="ytick_4">
     <g id="text_11">
      <!-- random_liberal -->
      <g style="fill:#262626;" transform="translate(28.879219 254.809266)scale(0.11 -0.11)">
       <use xlink:href="#DejaVuSans-114"/>
       <use x="41.113281" xlink:href="#DejaVuSans-97"/>
       <use x="102.392578" xlink:href="#DejaVuSans-110"/>
       <use x="165.771484" xlink:href="#DejaVuSans-100"/>
       <use x="229.248047" xlink:href="#DejaVuSans-111"/>
       <use x="290.429688" xlink:href="#DejaVuSans-109"/>
       <use x="387.841797" xlink:href="#DejaVuSans-95"/>
       <use x="437.841797" xlink:href="#DejaVuSans-108"/>
       <use x="465.625" xlink:href="#DejaVuSans-105"/>
       <use x="493.408203" xlink:href="#DejaVuSans-98"/>
       <use x="556.884766" xlink:href="#DejaVuSans-101"/>
       <use x="618.408203" xlink:href="#DejaVuSans-114"/>
       <use x="659.521484" xlink:href="#DejaVuSans-97"/>
       <use x="720.800781" xlink:href="#DejaVuSans-108"/>
      </g>
     </g>
    </g>
    <g id="ytick_5">
     <g id="text_12">
      <!-- simple_liberal -->
      <g style="fill:#262626;" transform="translate(35.233437 320.041266)scale(0.11 -0.11)">
       <use xlink:href="#DejaVuSans-115"/>
       <use x="52.099609" xlink:href="#DejaVuSans-105"/>
       <use x="79.882812" xlink:href="#DejaVuSans-109"/>
       <use x="177.294922" xlink:href="#DejaVuSans-112"/>
       <use x="240.771484" xlink:href="#DejaVuSans-108"/>
       <use x="268.554688" xlink:href="#DejaVuSans-101"/>
       <use x="330.078125" xlink:href="#DejaVuSans-95"/>
       <use x="380.078125" xlink:href="#DejaVuSans-108"/>
       <use x="407.861328" xlink:href="#DejaVuSans-105"/>
       <use x="435.644531" xlink:href="#DejaVuSans-98"/>
       <use x="499.121094" xlink:href="#DejaVuSans-101"/>
       <use x="560.644531" xlink:href="#DejaVuSans-114"/>
       <use x="601.757812" xlink:href="#DejaVuSans-97"/>
       <use x="663.037109" xlink:href="#DejaVuSans-108"/>
      </g>
     </g>
    </g>
    <g id="text_13">
     <!-- LiberalStrategy -->
     <defs>
      <path d="M 9.8125 72.90625 
L 19.671875 72.90625 
L 19.671875 8.296875 
L 55.171875 8.296875 
L 55.171875 0 
L 9.8125 0 
z
" id="DejaVuSans-76"/>
     </defs>
     <g style="fill:#262626;" transform="translate(16.318125 231.428437)rotate(-90)scale(0.12 -0.12)">
      <use xlink:href="#DejaVuSans-76"/>
      <use x="55.712891" xlink:href="#DejaVuSans-105"/>
      <use x="83.496094" xlink:href="#DejaVuSans-98"/>
      <use x="146.972656" xlink:href="#DejaVuSans-101"/>
      <use x="208.496094" xlink:href="#DejaVuSans-114"/>
      <use x="249.609375" xlink:href="#DejaVuSans-97"/>
      <use x="310.888672" xlink:href="#DejaVuSans-108"/>
      <use x="338.671875" xlink:href="#DejaVuSans-83"/>
      <use x="402.148438" xlink:href="#DejaVuSans-116"/>
      <use x="441.357422" xlink:href="#DejaVuSans-114"/>
      <use x="482.470703" xlink:href="#DejaVuSans-97"/>
      <use x="543.75" xlink:href="#DejaVuSans-116"/>
      <use x="582.958984" xlink:href="#DejaVuSans-101"/>
      <use x="644.482422" xlink:href="#DejaVuSans-103"/>
      <use x="707.958984" xlink:href="#DejaVuSans-121"/>
     </g>
    </g>
   </g>
   <g id="QuadMesh_1">
    <path clip-path="url(#p28cd25e10d)" d="M 120.724531 22.318125 
L 185.956531 22.318125 
L 185.956531 87.550125 
L 120.724531 87.550125 
L 120.724531 22.318125 
" style="fill:#08306b;"/>
    <path clip-path="url(#p28cd25e10d)" d="M 185.956531 22.318125 
L 251.188531 22.318125 
L 251.188531 87.550125 
L 185.956531 87.550125 
L 185.956531 22.318125 
" style="fill:#08306b;"/>
    <path clip-path="url(#p28cd25e10d)" d="M 251.188531 22.318125 
L 316.420531 22.318125 
L 316.420531 87.550125 
L 251.188531 87.550125 
L 251.188531 22.318125 
" style="fill:#a3cce3;"/>
    <path clip-path="url(#p28cd25e10d)" d="M 316.420531 22.318125 
L 381.652531 22.318125 
L 381.652531 87.550125 
L 316.420531 87.550125 
L 316.420531 22.318125 
" style="fill:#eff6fc;"/>
    <path clip-path="url(#p28cd25e10d)" d="M 381.652531 22.318125 
L 446.884531 22.318125 
L 446.884531 87.550125 
L 381.652531 87.550125 
L 381.652531 22.318125 
" style="fill:#3b8bc2;"/>
    <path clip-path="url(#p28cd25e10d)" d="M 446.884531 22.318125 
L 512.116531 22.318125 
L 512.116531 87.550125 
L 446.884531 87.550125 
L 446.884531 22.318125 
" style="fill:#e0ecf8;"/>
    <path clip-path="url(#p28cd25e10d)" d="M 120.724531 87.550125 
L 185.956531 87.550125 
L 185.956531 152.782125 
L 120.724531 152.782125 
L 120.724531 87.550125 
" style="fill:#08306b;"/>
    <path clip-path="url(#p28cd25e10d)" d="M 185.956531 87.550125 
L 251.188531 87.550125 
L 251.188531 152.782125 
L 185.956531 152.782125 
L 185.956531 87.550125 
" style="fill:#08306b;"/>
    <path clip-path="url(#p28cd25e10d)" d="M 251.188531 87.550125 
L 316.420531 87.550125 
L 316.420531 152.782125 
L 251.188531 152.782125 
L 251.188531 87.550125 
" style="fill:#a3cce3;"/>
    <path clip-path="url(#p28cd25e10d)" d="M 316.420531 87.550125 
L 381.652531 87.550125 
L 381.652531 152.782125 
L 316.420531 152.782125 
L 316.420531 87.550125 
" style="fill:#eff6fc;"/>
    <path clip-path="url(#p28cd25e10d)" d="M 381.652531 87.550125 
L 446.884531 87.550125 
L 446.884531 152.782125 
L 381.652531 152.782125 
L 381.652531 87.550125 
" style="fill:#3b8bc2;"/>
    <path clip-path="url(#p28cd25e10d)" d="M 446.884531 87.550125 
L 512.116531 87.550125 
L 512.116531 152.782125 
L 446.884531 152.782125 
L 446.884531 87.550125 
" style="fill:#e0ecf8;"/>
    <path clip-path="url(#p28cd25e10d)" d="M 120.724531 152.782125 
L 185.956531 152.782125 
L 185.956531 218.014125 
L 120.724531 218.014125 
L 120.724531 152.782125 
" style="fill:#72b2d8;"/>
    <path clip-path="url(#p28cd25e10d)" d="M 185.956531 152.782125 
L 251.188531 152.782125 
L 251.188531 218.014125 
L 185.956531 218.014125 
L 185.956531 152.782125 
" style="fill:#72b2d8;"/>
    <path clip-path="url(#p28cd25e10d)" d="M 251.188531 152.782125 
L 316.420531 152.782125 
L 316.420531 218.014125 
L 251.188531 218.014125 
L 251.188531 152.782125 
" style="fill:#e0ecf8;"/>
    <path clip-path="url(#p28cd25e10d)" d="M 316.420531 152.782125 
L 381.652531 152.782125 
L 381.652531 218.014125 
L 316.420531 218.014125 
L 316.420531 152.782125 
" style="fill:#e0ecf8;"/>
    <path clip-path="url(#p28cd25e10d)" d="M 381.652531 152.782125 
L 446.884531 152.782125 
L 446.884531 218.014125 
L 381.652531 218.014125 
L 381.652531 152.782125 
" style="fill:#72b2d8;"/>
    <path clip-path="url(#p28cd25e10d)" d="M 446.884531 152.782125 
L 512.116531 152.782125 
L 512.116531 218.014125 
L 446.884531 218.014125 
L 446.884531 152.782125 
" style="fill:#e0ecf8;"/>
    <path clip-path="url(#p28cd25e10d)" d="M 120.724531 218.014125 
L 185.956531 218.014125 
L 185.956531 283.246125 
L 120.724531 283.246125 
L 120.724531 218.014125 
" style="fill:#92c4de;"/>
    <path clip-path="url(#p28cd25e10d)" d="M 185.956531 218.014125 
L 251.188531 218.014125 
L 251.188531 283.246125 
L 185.956531 283.246125 
L 185.956531 218.014125 
" style="fill:#92c4de;"/>
    <path clip-path="url(#p28cd25e10d)" d="M 251.188531 218.014125 
L 316.420531 218.014125 
L 316.420531 283.246125 
L 251.188531 283.246125 
L 251.188531 218.014125 
" style="fill:#e5eff9;"/>
    <path clip-path="url(#p28cd25e10d)" d="M 316.420531 218.014125 
L 381.652531 218.014125 
L 381.652531 283.246125 
L 316.420531 283.246125 
L 316.420531 218.014125 
" style="fill:#f7fbff;"/>
    <path clip-path="url(#p28cd25e10d)" d="M 381.652531 218.014125 
L 446.884531 218.014125 
L 446.884531 283.246125 
L 381.652531 283.246125 
L 381.652531 218.014125 
" style="fill:#dce9f6;"/>
    <path clip-path="url(#p28cd25e10d)" d="M 446.884531 218.014125 
L 512.116531 218.014125 
L 512.116531 283.246125 
L 446.884531 283.246125 
L 446.884531 218.014125 
" style="fill:#f2f8fd;"/>
    <path clip-path="url(#p28cd25e10d)" d="M 120.724531 283.246125 
L 185.956531 283.246125 
L 185.956531 348.478125 
L 120.724531 348.478125 
L 120.724531 283.246125 
" style="fill:#08306b;"/>
    <path clip-path="url(#p28cd25e10d)" d="M 185.956531 283.246125 
L 251.188531 283.246125 
L 251.188531 348.478125 
L 185.956531 348.478125 
L 185.956531 283.246125 
" style="fill:#08306b;"/>
    <path clip-path="url(#p28cd25e10d)" d="M 251.188531 283.246125 
L 316.420531 283.246125 
L 316.420531 348.478125 
L 251.188531 348.478125 
L 251.188531 283.246125 
" style="fill:#61a7d2;"/>
    <path clip-path="url(#p28cd25e10d)" d="M 316.420531 283.246125 
L 381.652531 283.246125 
L 381.652531 348.478125 
L 316.420531 348.478125 
L 316.420531 283.246125 
" style="fill:#1a68ae;"/>
    <path clip-path="url(#p28cd25e10d)" d="M 381.652531 283.246125 
L 446.884531 283.246125 
L 446.884531 348.478125 
L 381.652531 348.478125 
L 381.652531 283.246125 
" style="fill:#1966ad;"/>
    <path clip-path="url(#p28cd25e10d)" d="M 446.884531 283.246125 
L 512.116531 283.246125 
L 512.116531 348.478125 
L 446.884531 348.478125 
L 446.884531 283.246125 
" style="fill:#3787c0;"/>
   </g>
   <g id="text_14">
    <!-- 0.92 -->
    <defs>
     <path d="M 31.78125 66.40625 
Q 24.171875 66.40625 20.328125 58.90625 
Q 16.5 51.421875 16.5 36.375 
Q 16.5 21.390625 20.328125 13.890625 
Q 24.171875 6.390625 31.78125 6.390625 
Q 39.453125 6.390625 43.28125 13.890625 
Q 47.125 21.390625 47.125 36.375 
Q 47.125 51.421875 43.28125 58.90625 
Q 39.453125 66.40625 31.78125 66.40625 
z
M 31.78125 74.21875 
Q 44.046875 74.21875 50.515625 64.515625 
Q 56.984375 54.828125 56.984375 36.375 
Q 56.984375 17.96875 50.515625 8.265625 
Q 44.046875 -1.421875 31.78125 -1.421875 
Q 19.53125 -1.421875 13.0625 8.265625 
Q 6.59375 17.96875 6.59375 36.375 
Q 6.59375 54.828125 13.0625 64.515625 
Q 19.53125 74.21875 31.78125 74.21875 
z
" id="DejaVuSans-48"/>
     <path d="M 10.6875 12.40625 
L 21 12.40625 
L 21 0 
L 10.6875 0 
z
" id="DejaVuSans-46"/>
     <path d="M 19.1875 8.296875 
L 53.609375 8.296875 
L 53.609375 0 
L 7.328125 0 
L 7.328125 8.296875 
Q 12.9375 14.109375 22.625 23.890625 
Q 32.328125 33.6875 34.8125 36.53125 
Q 39.546875 41.84375 41.421875 45.53125 
Q 43.3125 49.21875 43.3125 52.78125 
Q 43.3125 58.59375 39.234375 62.25 
Q 35.15625 65.921875 28.609375 65.921875 
Q 23.96875 65.921875 18.8125 64.3125 
Q 13.671875 62.703125 7.8125 59.421875 
L 7.8125 69.390625 
Q 13.765625 71.78125 18.9375 73 
Q 24.125 74.21875 28.421875 74.21875 
Q 39.75 74.21875 46.484375 68.546875 
Q 53.21875 62.890625 53.21875 53.421875 
Q 53.21875 48.921875 51.53125 44.890625 
Q 49.859375 40.875 45.40625 35.40625 
Q 44.1875 33.984375 37.640625 27.21875 
Q 31.109375 20.453125 19.1875 8.296875 
z
" id="DejaVuSans-50"/>
    </defs>
    <g style="fill:#ffffff;" transform="translate(139.981156 58.245375)scale(0.12 -0.12)">
     <use xlink:href="#DejaVuSans-48"/>
     <use x="63.623047" xlink:href="#DejaVuSans-46"/>
     <use x="95.410156" xlink:href="#DejaVuSans-57"/>
     <use x="159.033203" xlink:href="#DejaVuSans-50"/>
    </g>
   </g>
   <g id="text_15">
    <!-- 0.92 -->
    <g style="fill:#ffffff;" transform="translate(205.213156 58.245375)scale(0.12 -0.12)">
     <use xlink:href="#DejaVuSans-48"/>
     <use x="63.623047" xlink:href="#DejaVuSans-46"/>
     <use x="95.410156" xlink:href="#DejaVuSans-57"/>
     <use x="159.033203" xlink:href="#DejaVuSans-50"/>
    </g>
   </g>
   <g id="text_16">
    <!-- 0.36 -->
    <defs>
     <path d="M 40.578125 39.3125 
Q 47.65625 37.796875 51.625 33 
Q 55.609375 28.21875 55.609375 21.1875 
Q 55.609375 10.40625 48.1875 4.484375 
Q 40.765625 -1.421875 27.09375 -1.421875 
Q 22.515625 -1.421875 17.65625 -0.515625 
Q 12.796875 0.390625 7.625 2.203125 
L 7.625 11.71875 
Q 11.71875 9.328125 16.59375 8.109375 
Q 21.484375 6.890625 26.8125 6.890625 
Q 36.078125 6.890625 40.9375 10.546875 
Q 45.796875 14.203125 45.796875 21.1875 
Q 45.796875 27.640625 41.28125 31.265625 
Q 36.765625 34.90625 28.71875 34.90625 
L 20.21875 34.90625 
L 20.21875 43.015625 
L 29.109375 43.015625 
Q 36.375 43.015625 40.234375 45.921875 
Q 44.09375 48.828125 44.09375 54.296875 
Q 44.09375 59.90625 40.109375 62.90625 
Q 36.140625 65.921875 28.71875 65.921875 
Q 24.65625 65.921875 20.015625 65.03125 
Q 15.375 64.15625 9.8125 62.3125 
L 9.8125 71.09375 
Q 15.4375 72.65625 20.34375 73.4375 
Q 25.25 74.21875 29.59375 74.21875 
Q 40.828125 74.21875 47.359375 69.109375 
Q 53.90625 64.015625 53.90625 55.328125 
Q 53.90625 49.265625 50.4375 45.09375 
Q 46.96875 40.921875 40.578125 39.3125 
z
" id="DejaVuSans-51"/>
     <path d="M 33.015625 40.375 
Q 26.375 40.375 22.484375 35.828125 
Q 18.609375 31.296875 18.609375 23.390625 
Q 18.609375 15.53125 22.484375 10.953125 
Q 26.375 6.390625 33.015625 6.390625 
Q 39.65625 6.390625 43.53125 10.953125 
Q 47.40625 15.53125 47.40625 23.390625 
Q 47.40625 31.296875 43.53125 35.828125 
Q 39.65625 40.375 33.015625 40.375 
z
M 52.59375 71.296875 
L 52.59375 62.3125 
Q 48.875 64.0625 45.09375 64.984375 
Q 41.3125 65.921875 37.59375 65.921875 
Q 27.828125 65.921875 22.671875 59.328125 
Q 17.53125 52.734375 16.796875 39.40625 
Q 19.671875 43.65625 24.015625 45.921875 
Q 28.375 48.1875 33.59375 48.1875 
Q 44.578125 48.1875 50.953125 41.515625 
Q 57.328125 34.859375 57.328125 23.390625 
Q 57.328125 12.15625 50.6875 5.359375 
Q 44.046875 -1.421875 33.015625 -1.421875 
Q 20.359375 -1.421875 13.671875 8.265625 
Q 6.984375 17.96875 6.984375 36.375 
Q 6.984375 53.65625 15.1875 63.9375 
Q 23.390625 74.21875 37.203125 74.21875 
Q 40.921875 74.21875 44.703125 73.484375 
Q 48.484375 72.75 52.59375 71.296875 
z
" id="DejaVuSans-54"/>
    </defs>
    <g style="fill:#262626;" transform="translate(270.445156 58.245375)scale(0.12 -0.12)">
     <use xlink:href="#DejaVuSans-48"/>
     <use x="63.623047" xlink:href="#DejaVuSans-46"/>
     <use x="95.410156" xlink:href="#DejaVuSans-51"/>
     <use x="159.033203" xlink:href="#DejaVuSans-54"/>
    </g>
   </g>
   <g id="text_17">
    <!-- 0.07 -->
    <defs>
     <path d="M 8.203125 72.90625 
L 55.078125 72.90625 
L 55.078125 68.703125 
L 28.609375 0 
L 18.3125 0 
L 43.21875 64.59375 
L 8.203125 64.59375 
z
" id="DejaVuSans-55"/>
    </defs>
    <g style="fill:#262626;" transform="translate(335.677156 58.245375)scale(0.12 -0.12)">
     <use xlink:href="#DejaVuSans-48"/>
     <use x="63.623047" xlink:href="#DejaVuSans-46"/>
     <use x="95.410156" xlink:href="#DejaVuSans-48"/>
     <use x="159.033203" xlink:href="#DejaVuSans-55"/>
    </g>
   </g>
   <g id="text_18">
    <!-- 0.61 -->
    <g style="fill:#ffffff;" transform="translate(400.909156 58.245375)scale(0.12 -0.12)">
     <use xlink:href="#DejaVuSans-48"/>
     <use x="63.623047" xlink:href="#DejaVuSans-46"/>
     <use x="95.410156" xlink:href="#DejaVuSans-54"/>
     <use x="159.033203" xlink:href="#DejaVuSans-49"/>
    </g>
   </g>
   <g id="text_19">
    <!-- 0.14 -->
    <defs>
     <path d="M 37.796875 64.3125 
L 12.890625 25.390625 
L 37.796875 25.390625 
z
M 35.203125 72.90625 
L 47.609375 72.90625 
L 47.609375 25.390625 
L 58.015625 25.390625 
L 58.015625 17.1875 
L 47.609375 17.1875 
L 47.609375 0 
L 37.796875 0 
L 37.796875 17.1875 
L 4.890625 17.1875 
L 4.890625 26.703125 
z
" id="DejaVuSans-52"/>
    </defs>
    <g style="fill:#262626;" transform="translate(466.141156 58.245375)scale(0.12 -0.12)">
     <use xlink:href="#DejaVuSans-48"/>
     <use x="63.623047" xlink:href="#DejaVuSans-46"/>
     <use x="95.410156" xlink:href="#DejaVuSans-49"/>
     <use x="159.033203" xlink:href="#DejaVuSans-52"/>
    </g>
   </g>
   <g id="text_20">
    <!-- 0.92 -->
    <g style="fill:#ffffff;" transform="translate(139.981156 123.477375)scale(0.12 -0.12)">
     <use xlink:href="#DejaVuSans-48"/>
     <use x="63.623047" xlink:href="#DejaVuSans-46"/>
     <use x="95.410156" xlink:href="#DejaVuSans-57"/>
     <use x="159.033203" xlink:href="#DejaVuSans-50"/>
    </g>
   </g>
   <g id="text_21">
    <!-- 0.92 -->
    <g style="fill:#ffffff;" transform="translate(205.213156 123.477375)scale(0.12 -0.12)">
     <use xlink:href="#DejaVuSans-48"/>
     <use x="63.623047" xlink:href="#DejaVuSans-46"/>
     <use x="95.410156" xlink:href="#DejaVuSans-57"/>
     <use x="159.033203" xlink:href="#DejaVuSans-50"/>
    </g>
   </g>
   <g id="text_22">
    <!-- 0.36 -->
    <g style="fill:#262626;" transform="translate(270.445156 123.477375)scale(0.12 -0.12)">
     <use xlink:href="#DejaVuSans-48"/>
     <use x="63.623047" xlink:href="#DejaVuSans-46"/>
     <use x="95.410156" xlink:href="#DejaVuSans-51"/>
     <use x="159.033203" xlink:href="#DejaVuSans-54"/>
    </g>
   </g>
   <g id="text_23">
    <!-- 0.07 -->
    <g style="fill:#262626;" transform="translate(335.677156 123.477375)scale(0.12 -0.12)">
     <use xlink:href="#DejaVuSans-48"/>
     <use x="63.623047" xlink:href="#DejaVuSans-46"/>
     <use x="95.410156" xlink:href="#DejaVuSans-48"/>
     <use x="159.033203" xlink:href="#DejaVuSans-55"/>
    </g>
   </g>
   <g id="text_24">
    <!-- 0.61 -->
    <g style="fill:#ffffff;" transform="translate(400.909156 123.477375)scale(0.12 -0.12)">
     <use xlink:href="#DejaVuSans-48"/>
     <use x="63.623047" xlink:href="#DejaVuSans-46"/>
     <use x="95.410156" xlink:href="#DejaVuSans-54"/>
     <use x="159.033203" xlink:href="#DejaVuSans-49"/>
    </g>
   </g>
   <g id="text_25">
    <!-- 0.14 -->
    <g style="fill:#262626;" transform="translate(466.141156 123.477375)scale(0.12 -0.12)">
     <use xlink:href="#DejaVuSans-48"/>
     <use x="63.623047" xlink:href="#DejaVuSans-46"/>
     <use x="95.410156" xlink:href="#DejaVuSans-49"/>
     <use x="159.033203" xlink:href="#DejaVuSans-52"/>
    </g>
   </g>
   <g id="text_26">
    <!-- 0.46 -->
    <g style="fill:#ffffff;" transform="translate(139.981156 188.709375)scale(0.12 -0.12)">
     <use xlink:href="#DejaVuSans-48"/>
     <use x="63.623047" xlink:href="#DejaVuSans-46"/>
     <use x="95.410156" xlink:href="#DejaVuSans-52"/>
     <use x="159.033203" xlink:href="#DejaVuSans-54"/>
    </g>
   </g>
   <g id="text_27">
    <!-- 0.46 -->
    <g style="fill:#ffffff;" transform="translate(205.213156 188.709375)scale(0.12 -0.12)">
     <use xlink:href="#DejaVuSans-48"/>
     <use x="63.623047" xlink:href="#DejaVuSans-46"/>
     <use x="95.410156" xlink:href="#DejaVuSans-52"/>
     <use x="159.033203" xlink:href="#DejaVuSans-54"/>
    </g>
   </g>
   <g id="text_28">
    <!-- 0.13 -->
    <g style="fill:#262626;" transform="translate(270.445156 188.709375)scale(0.12 -0.12)">
     <use xlink:href="#DejaVuSans-48"/>
     <use x="63.623047" xlink:href="#DejaVuSans-46"/>
     <use x="95.410156" xlink:href="#DejaVuSans-49"/>
     <use x="159.033203" xlink:href="#DejaVuSans-51"/>
    </g>
   </g>
   <g id="text_29">
    <!-- 0.13 -->
    <g style="fill:#262626;" transform="translate(335.677156 188.709375)scale(0.12 -0.12)">
     <use xlink:href="#DejaVuSans-48"/>
     <use x="63.623047" xlink:href="#DejaVuSans-46"/>
     <use x="95.410156" xlink:href="#DejaVuSans-49"/>
     <use x="159.033203" xlink:href="#DejaVuSans-51"/>
    </g>
   </g>
   <g id="text_30">
    <!-- 0.46 -->
    <g style="fill:#ffffff;" transform="translate(400.909156 188.709375)scale(0.12 -0.12)">
     <use xlink:href="#DejaVuSans-48"/>
     <use x="63.623047" xlink:href="#DejaVuSans-46"/>
     <use x="95.410156" xlink:href="#DejaVuSans-52"/>
     <use x="159.033203" xlink:href="#DejaVuSans-54"/>
    </g>
   </g>
   <g id="text_31">
    <!-- 0.14 -->
    <g style="fill:#262626;" transform="translate(466.141156 188.709375)scale(0.12 -0.12)">
     <use xlink:href="#DejaVuSans-48"/>
     <use x="63.623047" xlink:href="#DejaVuSans-46"/>
     <use x="95.410156" xlink:href="#DejaVuSans-49"/>
     <use x="159.033203" xlink:href="#DejaVuSans-52"/>
    </g>
   </g>
   <g id="text_32">
    <!-- 0.39 -->
    <g style="fill:#262626;" transform="translate(139.981156 253.941375)scale(0.12 -0.12)">
     <use xlink:href="#DejaVuSans-48"/>
     <use x="63.623047" xlink:href="#DejaVuSans-46"/>
     <use x="95.410156" xlink:href="#DejaVuSans-51"/>
     <use x="159.033203" xlink:href="#DejaVuSans-57"/>
    </g>
   </g>
   <g id="text_33">
    <!-- 0.39 -->
    <g style="fill:#262626;" transform="translate(205.213156 253.941375)scale(0.12 -0.12)">
     <use xlink:href="#DejaVuSans-48"/>
     <use x="63.623047" xlink:href="#DejaVuSans-46"/>
     <use x="95.410156" xlink:href="#DejaVuSans-51"/>
     <use x="159.033203" xlink:href="#DejaVuSans-57"/>
    </g>
   </g>
   <g id="text_34">
    <!-- 0.11 -->
    <g style="fill:#262626;" transform="translate(270.445156 253.941375)scale(0.12 -0.12)">
     <use xlink:href="#DejaVuSans-48"/>
     <use x="63.623047" xlink:href="#DejaVuSans-46"/>
     <use x="95.410156" xlink:href="#DejaVuSans-49"/>
     <use x="159.033203" xlink:href="#DejaVuSans-49"/>
    </g>
   </g>
   <g id="text_35">
    <!-- 0.03 -->
    <g style="fill:#262626;" transform="translate(335.677156 253.941375)scale(0.12 -0.12)">
     <use xlink:href="#DejaVuSans-48"/>
     <use x="63.623047" xlink:href="#DejaVuSans-46"/>
     <use x="95.410156" xlink:href="#DejaVuSans-48"/>
     <use x="159.033203" xlink:href="#DejaVuSans-51"/>
    </g>
   </g>
   <g id="text_36">
    <!-- 0.16 -->
    <g style="fill:#262626;" transform="translate(400.909156 253.941375)scale(0.12 -0.12)">
     <use xlink:href="#DejaVuSans-48"/>
     <use x="63.623047" xlink:href="#DejaVuSans-46"/>
     <use x="95.410156" xlink:href="#DejaVuSans-49"/>
     <use x="159.033203" xlink:href="#DejaVuSans-54"/>
    </g>
   </g>
   <g id="text_37">
    <!-- 0.06 -->
    <g style="fill:#262626;" transform="translate(466.141156 253.941375)scale(0.12 -0.12)">
     <use xlink:href="#DejaVuSans-48"/>
     <use x="63.623047" xlink:href="#DejaVuSans-46"/>
     <use x="95.410156" xlink:href="#DejaVuSans-48"/>
     <use x="159.033203" xlink:href="#DejaVuSans-54"/>
    </g>
   </g>
   <g id="text_38">
    <!-- 0.92 -->
    <g style="fill:#ffffff;" transform="translate(139.981156 319.173375)scale(0.12 -0.12)">
     <use xlink:href="#DejaVuSans-48"/>
     <use x="63.623047" xlink:href="#DejaVuSans-46"/>
     <use x="95.410156" xlink:href="#DejaVuSans-57"/>
     <use x="159.033203" xlink:href="#DejaVuSans-50"/>
    </g>
   </g>
   <g id="text_39">
    <!-- 0.92 -->
    <g style="fill:#ffffff;" transform="translate(205.213156 319.173375)scale(0.12 -0.12)">
     <use xlink:href="#DejaVuSans-48"/>
     <use x="63.623047" xlink:href="#DejaVuSans-46"/>
     <use x="95.410156" xlink:href="#DejaVuSans-57"/>
     <use x="159.033203" xlink:href="#DejaVuSans-50"/>
    </g>
   </g>
   <g id="text_40">
    <!-- 0.50 -->
    <defs>
     <path d="M 10.796875 72.90625 
L 49.515625 72.90625 
L 49.515625 64.59375 
L 19.828125 64.59375 
L 19.828125 46.734375 
Q 21.96875 47.46875 24.109375 47.828125 
Q 26.265625 48.1875 28.421875 48.1875 
Q 40.625 48.1875 47.75 41.5 
Q 54.890625 34.8125 54.890625 23.390625 
Q 54.890625 11.625 47.5625 5.09375 
Q 40.234375 -1.421875 26.90625 -1.421875 
Q 22.3125 -1.421875 17.546875 -0.640625 
Q 12.796875 0.140625 7.71875 1.703125 
L 7.71875 11.625 
Q 12.109375 9.234375 16.796875 8.0625 
Q 21.484375 6.890625 26.703125 6.890625 
Q 35.15625 6.890625 40.078125 11.328125 
Q 45.015625 15.765625 45.015625 23.390625 
Q 45.015625 31 40.078125 35.4375 
Q 35.15625 39.890625 26.703125 39.890625 
Q 22.75 39.890625 18.8125 39.015625 
Q 14.890625 38.140625 10.796875 36.28125 
z
" id="DejaVuSans-53"/>
    </defs>
    <g style="fill:#ffffff;" transform="translate(270.445156 319.173375)scale(0.12 -0.12)">
     <use xlink:href="#DejaVuSans-48"/>
     <use x="63.623047" xlink:href="#DejaVuSans-46"/>
     <use x="95.410156" xlink:href="#DejaVuSans-53"/>
     <use x="159.033203" xlink:href="#DejaVuSans-48"/>
    </g>
   </g>
   <g id="text_41">
    <!-- 0.73 -->
    <g style="fill:#ffffff;" transform="translate(335.677156 319.173375)scale(0.12 -0.12)">
     <use xlink:href="#DejaVuSans-48"/>
     <use x="63.623047" xlink:href="#DejaVuSans-46"/>
     <use x="95.410156" xlink:href="#DejaVuSans-55"/>
     <use x="159.033203" xlink:href="#DejaVuSans-51"/>
    </g>
   </g>
   <g id="text_42">
    <!-- 0.74 -->
    <g style="fill:#ffffff;" transform="translate(400.909156 319.173375)scale(0.12 -0.12)">
     <use xlink:href="#DejaVuSans-48"/>
     <use x="63.623047" xlink:href="#DejaVuSans-46"/>
     <use x="95.410156" xlink:href="#DejaVuSans-55"/>
     <use x="159.033203" xlink:href="#DejaVuSans-52"/>
    </g>
   </g>
   <g id="text_43">
    <!-- 0.63 -->
    <g style="fill:#ffffff;" transform="translate(466.141156 319.173375)scale(0.12 -0.12)">
     <use xlink:href="#DejaVuSans-48"/>
     <use x="63.623047" xlink:href="#DejaVuSans-46"/>
     <use x="95.410156" xlink:href="#DejaVuSans-54"/>
     <use x="159.033203" xlink:href="#DejaVuSans-51"/>
    </g>
   </g>
   <g id="text_44">
    <!-- Liberal vs. Fascist strategies (liberal winrate) -->
    <defs>
     <path id="DejaVuSans-32"/>
     <path d="M 2.984375 54.6875 
L 12.5 54.6875 
L 29.59375 8.796875 
L 46.6875 54.6875 
L 56.203125 54.6875 
L 35.6875 0 
L 23.484375 0 
z
" id="DejaVuSans-118"/>
     <path d="M 31 75.875 
Q 24.46875 64.65625 21.28125 53.65625 
Q 18.109375 42.671875 18.109375 31.390625 
Q 18.109375 20.125 21.3125 9.0625 
Q 24.515625 -2 31 -13.1875 
L 23.1875 -13.1875 
Q 15.875 -1.703125 12.234375 9.375 
Q 8.59375 20.453125 8.59375 31.390625 
Q 8.59375 42.28125 12.203125 53.3125 
Q 15.828125 64.359375 23.1875 75.875 
z
" id="DejaVuSans-40"/>
     <path d="M 4.203125 54.6875 
L 13.1875 54.6875 
L 24.421875 12.015625 
L 35.59375 54.6875 
L 46.1875 54.6875 
L 57.421875 12.015625 
L 68.609375 54.6875 
L 77.59375 54.6875 
L 63.28125 0 
L 52.6875 0 
L 40.921875 44.828125 
L 29.109375 0 
L 18.5 0 
z
" id="DejaVuSans-119"/>
     <path d="M 8.015625 75.875 
L 15.828125 75.875 
Q 23.140625 64.359375 26.78125 53.3125 
Q 30.421875 42.28125 30.421875 31.390625 
Q 30.421875 20.453125 26.78125 9.375 
Q 23.140625 -1.703125 15.828125 -13.1875 
L 8.015625 -13.1875 
Q 14.5 -2 17.703125 9.0625 
Q 20.90625 20.125 20.90625 31.390625 
Q 20.90625 42.671875 17.703125 53.65625 
Q 14.5 64.65625 8.015625 75.875 
z
" id="DejaVuSans-41"/>
    </defs>
    <g style="fill:#262626;" transform="translate(181.982094 16.318125)scale(0.12 -0.12)">
     <use xlink:href="#DejaVuSans-76"/>
     <use x="55.712891" xlink:href="#DejaVuSans-105"/>
     <use x="83.496094" xlink:href="#DejaVuSans-98"/>
     <use x="146.972656" xlink:href="#DejaVuSans-101"/>
     <use x="208.496094" xlink:href="#DejaVuSans-114"/>
     <use x="249.609375" xlink:href="#DejaVuSans-97"/>
     <use x="310.888672" xlink:href="#DejaVuSans-108"/>
     <use x="338.671875" xlink:href="#DejaVuSans-32"/>
     <use x="370.458984" xlink:href="#DejaVuSans-118"/>
     <use x="429.638672" xlink:href="#DejaVuSans-115"/>
     <use x="481.738281" xlink:href="#DejaVuSans-46"/>
     <use x="513.525391" xlink:href="#DejaVuSans-32"/>
     <use x="545.3125" xlink:href="#DejaVuSans-70"/>
     <use x="593.707031" xlink:href="#DejaVuSans-97"/>
     <use x="654.986328" xlink:href="#DejaVuSans-115"/>
     <use x="707.085938" xlink:href="#DejaVuSans-99"/>
     <use x="762.066406" xlink:href="#DejaVuSans-105"/>
     <use x="789.849609" xlink:href="#DejaVuSans-115"/>
     <use x="841.949219" xlink:href="#DejaVuSans-116"/>
     <use x="881.158203" xlink:href="#DejaVuSans-32"/>
     <use x="912.945312" xlink:href="#DejaVuSans-115"/>
     <use x="965.044922" xlink:href="#DejaVuSans-116"/>
     <use x="1004.253906" xlink:href="#DejaVuSans-114"/>
     <use x="1045.367188" xlink:href="#DejaVuSans-97"/>
     <use x="1106.646484" xlink:href="#DejaVuSans-116"/>
     <use x="1145.855469" xlink:href="#DejaVuSans-101"/>
     <use x="1207.378906" xlink:href="#DejaVuSans-103"/>
     <use x="1270.855469" xlink:href="#DejaVuSans-105"/>
     <use x="1298.638672" xlink:href="#DejaVuSans-101"/>
     <use x="1360.162109" xlink:href="#DejaVuSans-115"/>
     <use x="1412.261719" xlink:href="#DejaVuSans-32"/>
     <use x="1444.048828" xlink:href="#DejaVuSans-40"/>
     <use x="1483.0625" xlink:href="#DejaVuSans-108"/>
     <use x="1510.845703" xlink:href="#DejaVuSans-105"/>
     <use x="1538.628906" xlink:href="#DejaVuSans-98"/>
     <use x="1602.105469" xlink:href="#DejaVuSans-101"/>
     <use x="1663.628906" xlink:href="#DejaVuSans-114"/>
     <use x="1704.742188" xlink:href="#DejaVuSans-97"/>
     <use x="1766.021484" xlink:href="#DejaVuSans-108"/>
     <use x="1793.804688" xlink:href="#DejaVuSans-32"/>
     <use x="1825.591797" xlink:href="#DejaVuSans-119"/>
     <use x="1907.378906" xlink:href="#DejaVuSans-105"/>
     <use x="1935.162109" xlink:href="#DejaVuSans-110"/>
     <use x="1998.541016" xlink:href="#DejaVuSans-114"/>
     <use x="2039.654297" xlink:href="#DejaVuSans-97"/>
     <use x="2100.933594" xlink:href="#DejaVuSans-116"/>
     <use x="2140.142578" xlink:href="#DejaVuSans-101"/>
     <use x="2201.666016" xlink:href="#DejaVuSans-41"/>
    </g>
   </g>
  </g>
  <g id="axes_2">
   <g id="patch_3">
    <path clip-path="url(#pb8c2a5eeb2)" d="M 595.816531 348.478125 
L 595.816531 347.204062 
L 595.816531 23.592188 
L 595.816531 22.318125 
L 612.124531 22.318125 
L 612.124531 23.592188 
L 612.124531 347.204062 
L 612.124531 348.478125 
z
" style="fill:#eaeaf2;stroke:#eaeaf2;stroke-linejoin:miter;stroke-width:0.01;"/>
   </g>
   <g id="matplotlib.axis_3"/>
   <g id="matplotlib.axis_4">
    <g id="ytick_6">
     <g id="line2d_1">
      <defs>
       <path d="M 0 0 
L 6 0 
" id="m96b822b7bc" style="stroke:#262626;stroke-width:1.25;"/>
      </defs>
      <g>
       <use style="fill:#262626;stroke:#262626;stroke-width:1.25;" x="612.124531" xlink:href="#m96b822b7bc" y="324.094826"/>
      </g>
     </g>
     <g id="text_45">
      <!-- 0.1 -->
      <g style="fill:#262626;" transform="translate(621.624531 328.273967)scale(0.11 -0.11)">
       <use xlink:href="#DejaVuSans-48"/>
       <use x="63.623047" xlink:href="#DejaVuSans-46"/>
       <use x="95.410156" xlink:href="#DejaVuSans-49"/>
      </g>
     </g>
    </g>
    <g id="ytick_7">
     <g id="line2d_2">
      <g>
       <use style="fill:#262626;stroke:#262626;stroke-width:1.25;" x="612.124531" xlink:href="#m96b822b7bc" y="287.515123"/>
      </g>
     </g>
     <g id="text_46">
      <!-- 0.2 -->
      <g style="fill:#262626;" transform="translate(621.624531 291.694263)scale(0.11 -0.11)">
       <use xlink:href="#DejaVuSans-48"/>
       <use x="63.623047" xlink:href="#DejaVuSans-46"/>
       <use x="95.410156" xlink:href="#DejaVuSans-50"/>
      </g>
     </g>
    </g>
    <g id="ytick_8">
     <g id="line2d_3">
      <g>
       <use style="fill:#262626;stroke:#262626;stroke-width:1.25;" x="612.124531" xlink:href="#m96b822b7bc" y="250.935419"/>
      </g>
     </g>
     <g id="text_47">
      <!-- 0.3 -->
      <g style="fill:#262626;" transform="translate(621.624531 255.11456)scale(0.11 -0.11)">
       <use xlink:href="#DejaVuSans-48"/>
       <use x="63.623047" xlink:href="#DejaVuSans-46"/>
       <use x="95.410156" xlink:href="#DejaVuSans-51"/>
      </g>
     </g>
    </g>
    <g id="ytick_9">
     <g id="line2d_4">
      <g>
       <use style="fill:#262626;stroke:#262626;stroke-width:1.25;" x="612.124531" xlink:href="#m96b822b7bc" y="214.355716"/>
      </g>
     </g>
     <g id="text_48">
      <!-- 0.4 -->
      <g style="fill:#262626;" transform="translate(621.624531 218.534856)scale(0.11 -0.11)">
       <use xlink:href="#DejaVuSans-48"/>
       <use x="63.623047" xlink:href="#DejaVuSans-46"/>
       <use x="95.410156" xlink:href="#DejaVuSans-52"/>
      </g>
     </g>
    </g>
    <g id="ytick_10">
     <g id="line2d_5">
      <g>
       <use style="fill:#262626;stroke:#262626;stroke-width:1.25;" x="612.124531" xlink:href="#m96b822b7bc" y="177.776012"/>
      </g>
     </g>
     <g id="text_49">
      <!-- 0.5 -->
      <g style="fill:#262626;" transform="translate(621.624531 181.955153)scale(0.11 -0.11)">
       <use xlink:href="#DejaVuSans-48"/>
       <use x="63.623047" xlink:href="#DejaVuSans-46"/>
       <use x="95.410156" xlink:href="#DejaVuSans-53"/>
      </g>
     </g>
    </g>
    <g id="ytick_11">
     <g id="line2d_6">
      <g>
       <use style="fill:#262626;stroke:#262626;stroke-width:1.25;" x="612.124531" xlink:href="#m96b822b7bc" y="141.196309"/>
      </g>
     </g>
     <g id="text_50">
      <!-- 0.6 -->
      <g style="fill:#262626;" transform="translate(621.624531 145.375449)scale(0.11 -0.11)">
       <use xlink:href="#DejaVuSans-48"/>
       <use x="63.623047" xlink:href="#DejaVuSans-46"/>
       <use x="95.410156" xlink:href="#DejaVuSans-54"/>
      </g>
     </g>
    </g>
    <g id="ytick_12">
     <g id="line2d_7">
      <g>
       <use style="fill:#262626;stroke:#262626;stroke-width:1.25;" x="612.124531" xlink:href="#m96b822b7bc" y="104.616605"/>
      </g>
     </g>
     <g id="text_51">
      <!-- 0.7 -->
      <g style="fill:#262626;" transform="translate(621.624531 108.795746)scale(0.11 -0.11)">
       <use xlink:href="#DejaVuSans-48"/>
       <use x="63.623047" xlink:href="#DejaVuSans-46"/>
       <use x="95.410156" xlink:href="#DejaVuSans-55"/>
      </g>
     </g>
    </g>
    <g id="ytick_13">
     <g id="line2d_8">
      <g>
       <use style="fill:#262626;stroke:#262626;stroke-width:1.25;" x="612.124531" xlink:href="#m96b822b7bc" y="68.036902"/>
      </g>
     </g>
     <g id="text_52">
      <!-- 0.8 -->
      <defs>
       <path d="M 31.78125 34.625 
Q 24.75 34.625 20.71875 30.859375 
Q 16.703125 27.09375 16.703125 20.515625 
Q 16.703125 13.921875 20.71875 10.15625 
Q 24.75 6.390625 31.78125 6.390625 
Q 38.8125 6.390625 42.859375 10.171875 
Q 46.921875 13.96875 46.921875 20.515625 
Q 46.921875 27.09375 42.890625 30.859375 
Q 38.875 34.625 31.78125 34.625 
z
M 21.921875 38.8125 
Q 15.578125 40.375 12.03125 44.71875 
Q 8.5 49.078125 8.5 55.328125 
Q 8.5 64.0625 14.71875 69.140625 
Q 20.953125 74.21875 31.78125 74.21875 
Q 42.671875 74.21875 48.875 69.140625 
Q 55.078125 64.0625 55.078125 55.328125 
Q 55.078125 49.078125 51.53125 44.71875 
Q 48 40.375 41.703125 38.8125 
Q 48.828125 37.15625 52.796875 32.3125 
Q 56.78125 27.484375 56.78125 20.515625 
Q 56.78125 9.90625 50.3125 4.234375 
Q 43.84375 -1.421875 31.78125 -1.421875 
Q 19.734375 -1.421875 13.25 4.234375 
Q 6.78125 9.90625 6.78125 20.515625 
Q 6.78125 27.484375 10.78125 32.3125 
Q 14.796875 37.15625 21.921875 38.8125 
z
M 18.3125 54.390625 
Q 18.3125 48.734375 21.84375 45.5625 
Q 25.390625 42.390625 31.78125 42.390625 
Q 38.140625 42.390625 41.71875 45.5625 
Q 45.3125 48.734375 45.3125 54.390625 
Q 45.3125 60.0625 41.71875 63.234375 
Q 38.140625 66.40625 31.78125 66.40625 
Q 25.390625 66.40625 21.84375 63.234375 
Q 18.3125 60.0625 18.3125 54.390625 
z
" id="DejaVuSans-56"/>
      </defs>
      <g style="fill:#262626;" transform="translate(621.624531 72.216042)scale(0.11 -0.11)">
       <use xlink:href="#DejaVuSans-48"/>
       <use x="63.623047" xlink:href="#DejaVuSans-46"/>
       <use x="95.410156" xlink:href="#DejaVuSans-56"/>
      </g>
     </g>
    </g>
    <g id="ytick_14">
     <g id="line2d_9">
      <g>
       <use style="fill:#262626;stroke:#262626;stroke-width:1.25;" x="612.124531" xlink:href="#m96b822b7bc" y="31.457198"/>
      </g>
     </g>
     <g id="text_53">
      <!-- 0.9 -->
      <g style="fill:#262626;" transform="translate(621.624531 35.636339)scale(0.11 -0.11)">
       <use xlink:href="#DejaVuSans-48"/>
       <use x="63.623047" xlink:href="#DejaVuSans-46"/>
       <use x="95.410156" xlink:href="#DejaVuSans-57"/>
      </g>
     </g>
    </g>
    <g id="text_54">
     <!-- Liberal winrate -->
     <g style="fill:#262626;" transform="translate(652.236094 230.19)rotate(-90)scale(0.12 -0.12)">
      <use xlink:href="#DejaVuSans-76"/>
      <use x="55.712891" xlink:href="#DejaVuSans-105"/>
      <use x="83.496094" xlink:href="#DejaVuSans-98"/>
      <use x="146.972656" xlink:href="#DejaVuSans-101"/>
      <use x="208.496094" xlink:href="#DejaVuSans-114"/>
      <use x="249.609375" xlink:href="#DejaVuSans-97"/>
      <use x="310.888672" xlink:href="#DejaVuSans-108"/>
      <use x="338.671875" xlink:href="#DejaVuSans-32"/>
      <use x="370.458984" xlink:href="#DejaVuSans-119"/>
      <use x="452.246094" xlink:href="#DejaVuSans-105"/>
      <use x="480.029297" xlink:href="#DejaVuSans-110"/>
      <use x="543.408203" xlink:href="#DejaVuSans-114"/>
      <use x="584.521484" xlink:href="#DejaVuSans-97"/>
      <use x="645.800781" xlink:href="#DejaVuSans-116"/>
      <use x="685.009766" xlink:href="#DejaVuSans-101"/>
     </g>
    </g>
   </g>
   <image height="326" id="imagefb5380df49" transform="scale(1 -1)translate(0 -326)" width="16" x="596" xlink:href="data:image/png;base64,
iVBORw0KGgoAAAANSUhEUgAAABAAAAFGCAYAAABjUx8/AAAABHNCSVQICAgIfAhkiAAAAWtJREFUeJztmktuxTAMA9nC979uFwWSt2hvQAGkhcneBD3Wz0m+fn7fV8ZzvOXSeeUpHHO9vr3l0jENAFE7ILoObIgDp5CGWLEFU8BNJiAC8U8g7cBnoHRR3QAx3t6B2ACxoiIBEYhAFFceCYj/DtKDZrweABGIUgXEx6RIRZLOU1DW8/dGIPoQ4wyePIO0gx0QXYF4X3hcAXcLFdc+t6jGHeSzMT4jkY0TJa1gUk1vwZ6RCrIx3xttiCsi0XaQZjBwjKbAhitPOhdgMOLAWz+SjXEGlLQVDFyB+I1lw3wAxIJbW0VvTMcBECveYCyAuKAiXZ9MBd9cN0C8PxKpSA2RuALi7adQkI1xiBWBdLsDIG6BCAN/wDCnLCDS2mYECn76jjOICzT8q3s/g3guAHHFKQBxB4O4AGW9AmI8mXYwsAW8j+e2g4lsDG9hwoEnMAExz4BAijsAonRkvgaqgEggFQQSEGltDQ5siB+pNRtIW8WI5QAAAABJRU5ErkJggg==" y="-22"/>
   <g id="patch_4">
    <path d="M 595.816531 348.478125 
L 595.816531 347.204062 
L 595.816531 23.592188 
L 595.816531 22.318125 
L 612.124531 22.318125 
L 612.124531 23.592188 
L 612.124531 347.204062 
L 612.124531 348.478125 
z
" style="fill:none;"/>
   </g>
  </g>
 </g>
 <defs>
  <clipPath id="p28cd25e10d">
   <rect height="326.16" width="391.392" x="120.724531" y="22.318125"/>
  </clipPath>
  <clipPath id="pb8c2a5eeb2">
   <rect height="326.16" width="16.308" x="595.816531" y="22.318125"/>
  </clipPath>
 </defs>
</svg>
